Modélisation - Projet partie 1
…
# A tibble: 7 × 2
  jour         n
  <fct>    <int>
1 dimanche   180
2 jeudi      180
3 lundi      180
4 mardi      180
5 mercredi   180
6 samedi     180
7 vendredi   180

[1] "Combien de déplacements par heure de la journée?"

# A tibble: 710 × 2
   hour      n
   <chr> <int>
 1 00:00     1
 2 00:05     1
 3 00:08     1
 4 00:28     1
 5 00:31     1
 6 00:32     1
 7 00:37     1
 8 00:42     1
 9 00:48     1
10 00:52     1
# ℹ 700 more rows

[1] "Combien de déplacements par jour?"

# A tibble: 1,260 × 2
   date                    n
   <dttm>              <int>
 1 2021-05-01 07:19:48     1
 2 2021-05-01 07:25:18     1
 3 2021-05-01 08:32:25     1
 4 2021-05-01 16:27:46     1
 5 2021-05-01 17:14:47     1
 6 2021-05-02 14:11:08     1
 7 2021-05-02 23:38:09     1
 8 2021-05-03 07:24:21     1
 9 2021-05-03 17:14:59     1
10 2021-05-03 17:37:37     1
# ℹ 1,250 more rows
…
